%YAML 1.1
%TAG !u! tag:unity3d.com,2011:
--- !u!221 &22100000
AnimatorOverrideController:
  m_ObjectHideFlags: 0
  m_CorrespondingSourceObject: {fileID: 0}
  m_PrefabInstance: {fileID: 0}
  m_PrefabAsset: {fileID: 0}
  m_Name: Override
  m_Controller: {fileID: 9100000, guid: c3177dcbc8ab64f40ae96a38f8266074, type: 2}
  m_Clips:
  - m_OriginalClip: {fileID: 7400000, guid: 9e43cd2a6c6dad742a083e51bc3add96, type: 2}
    m_OverrideClip: {fileID: 7400000, guid: 76ae0e9896a24ca42a7545a939837b02, type: 2}
