%YAML 1.1
%TAG !u! tag:unity3d.com,2011:
--- !u!21 &2100000
Material:
  serializedVersion: 6
  m_ObjectHideFlags: 0
  m_CorrespondingSourceObject: {fileID: 0}
  m_PrefabInstance: {fileID: 0}
  m_PrefabAsset: {fileID: 0}
  m_Name: Daylight Water
  m_Shader: {fileID: 4800000, guid: 1cac2e0bcc34e4b3cbb4bd85982eba83, type: 3}
  m_ShaderKeywords: 
  m_LightmapFlags: 5
  m_EnableInstancingVariants: 0
  m_DoubleSidedGI: 0
  m_CustomRenderQueue: -1
  stringTagMap: {}
  disabledShaderPasses: []
  m_SavedProperties:
    serializedVersion: 3
    m_TexEnvs:
    - _BumpMap:
        m_Texture: {fileID: 2800000, guid: 2dd3788f8589b40bf82a92d76ffc5091, type: 3}
        m_Scale: {x: 1, y: 1}
        m_Offset: {x: 0, y: 0}
    - _Fresnel:
        m_Texture: {fileID: 2800000, guid: 5b5c5575fd4c74abd9f7b30862fb76a3, type: 3}
        m_Scale: {x: 1, y: 1}
        m_Offset: {x: 0, y: 0}
    - _MainTex:
        m_Texture: {fileID: 2800000, guid: e6f8288974c664a309d6c66de636978c, type: 3}
        m_Scale: {x: 1, y: 1}
        m_Offset: {x: 0, y: 0}
    - _ReflectionTex:
        m_Texture: {fileID: 0}
        m_Scale: {x: 1, y: 1}
        m_Offset: {x: 0, y: 0}
    - _ReflectiveColor:
        m_Texture: {fileID: 2800000, guid: 17680dc3bf8f74b498b01cf1481e2593, type: 3}
        m_Scale: {x: 1, y: 1}
        m_Offset: {x: 0, y: 0}
    - _ReflectiveColorCube:
        m_Texture: {fileID: 8900000, guid: 9cda328e4b6954d70841a8a66f42ec08, type: 3}
        m_Scale: {x: 1, y: 1}
        m_Offset: {x: 0, y: 0}
    - _RefractionTex:
        m_Texture: {fileID: 0}
        m_Scale: {x: 1, y: 1}
        m_Offset: {x: 0, y: 0}
    m_Floats:
    - _ReflDistort: 0
    - _RefrDistort: 0
    - _WaveScale: 0.005
    m_Colors:
    - WaveSpeed: {r: 9, g: 4.5, b: -8, a: -3.5}
    - _BumpMap_ST: {r: 1, g: 1, b: 0, a: 0}
    - _Fresnel_ST: {r: 1, g: 1, b: 0, a: 0}
    - _HorizonColor: {r: 0.32039496, g: 0.63880926, b: 0.695, a: 0}
    - _MainTex_ST: {r: 1, g: 1, b: 0, a: 0}
    - _ReflectionTex_ST: {r: 1, g: 1, b: 0, a: 0}
    - _ReflectiveColorCube_ST: {r: 1, g: 1, b: 0, a: 0}
    - _ReflectiveColor_ST: {r: 1, g: 1, b: 0, a: 0}
    - _RefrColor: {r: 0.6061766, g: 0.9046313, b: 0.9245283, a: 1}
    - _RefractionTex_ST: {r: 1, g: 1, b: 0, a: 0}
  m_BuildTextureStacks: []
--- !u!1002 &2100001
EditorExtensionImpl:
  serializedVersion: 6
